{
  "content": [
    {
      "id": 1,
      "logo": {
        "name": "Logo Crego e monaguillo",
        "url": "https://th.bing.com/th/id/OIP.SImAKAkFQrPhMm40VVJH1gAAAA?w=184&h=114&c=7&r=0&o=5&dpr=1.3&pid=1.7"
      },
      "name": "Crego e monaguillo",
      "url": ""
    },
    {
      "id": 2,
      "logo": {
        "name": "Logo D.O. Monterrei",
        "url": "https://th.bing.com/th/id/OIP.SImAKAkFQrPhMm40VVJH1gAAAA?w=184&h=114&c=7&r=0&o=5&dpr=1.3&pid=1.7"
      },
      "name": "D.O Monterrei",
      "url": ""
    },
    {
      "id": 3,
      "logo": {
        "name": "Logo Socitransa",
        "url": "https://th.bing.com/th/id/OIP.HNMABB-WpG_UH7vw9hfP4gAAAA?w=152&h=176&c=7&r=0&o=5&dpr=1.3&pid=1.7"
      },
      "name": "Socitransa",
      "url": ""
    },
    {
      "id": 4,
      "logo": {
        "name": "Logo Gadis",
        "url": "https://th.bing.com/th/id/OIP.VLJ8cwouNL7kemKMp1L7mAHaCZ?w=336&h=113&c=7&r=0&o=5&dpr=1.3&pid=1.7"
      },
      "name": "Gadis",
      "url": ""
    },
    {
      "id": 5,
      "logo": {
        "name": "Logo Concello",
        "url": "https://th.bing.com/th/id/OIP.vIsk9tDZcq6hLNJ6zQZjkgAAAA?w=127&h=150&c=7&r=0&o=5&dpr=1.3&pid=1.7"
      },
      "name": "Concello de Verín",
      "url": ""
    },
    {
      "id": 6,
      "logo": {
        "name": "Logo Concello",
        "url": "https://th.bing.com/th/id/OIP.xpMRyUJntOtDiXbNGL6dMAHaDV?w=336&h=157&c=7&r=0&o=5&dpr=1.3&pid=1.7"
      },
      "name": "FEGABA",
      "url": ""
    }
  ],
  "totalElements": 50,
  "totalPages": 5,
  "size": 10,
  "number": 0,
  "first": true,
  "last": false,
  "numberOfElements": 3,
  "empty": false,
  "sort": {
    "sorted": true,
    "unsorted": false,
    "empty": false
  },
  "pageable": {
    "sort": {
      "sorted": true,
      "unsorted": false,
      "empty": false
    },
    "offset": 0,
    "pageSize": 10,
    "pageNumber": 0,
    "paged": true,
    "unpaged": false
  }
}
