{
  "content": [
    {
      "id": 1,
      "name": "Augas de sousas Xuventude Verin",
      "category": 1,
      "sex": 2,
      "trainer": "Payo, Mikel",
      "playerCount": 13
    },
    {
      "id": 2,
      "name": "Augas de sousas Xuventude Verin",
      "category": 3,
      "sex": 1,
      "trainer": "Juan, Erik",
      "playerCount": 8
    }
  ],
  "page": {
    "size": 10,
    "number": 1,
    "totalElements": 20,
    "totalPages": 2
  }
}
