{
  "content": [
    {
      "id": 1,
      "playerCompleteName": "Jugador Numero Uno",
      "category": 1,
      "state": 1,
      "sex": 1,
      "parentCompleteName": "Padre Jugador Uno",
      "email": "example_1@gmail.com",
      "phone": "675655443"
    },
    {
      "id": 2,
      "playerCompleteName": "Jugador Numero Dos",
      "category": 1,
      "state": 1,
      "sex": 1,
      "parentCompleteName": "Padre Jugador Dos",
      "email": "example_2@gmail.com",
      "phone": "666777888"
    },
    {
      "id": 3,
      "playerCompleteName": "Jugador Numero Tres",
      "category": 1,
      "state": 1,
      "sex": 2,
      "parentCompleteName": "Padre Jugador Tres",
      "email": "example_2@gmail.com",
      "phone": "678345129"
    }
  ],
  "totalElements": 50,
  "totalPages": 5,
  "size": 10,
  "number": 0,
  "first": true,
  "last": false,
  "numberOfElements": 3,
  "empty": false,
  "sort": {
    "sorted": true,
    "unsorted": false,
    "empty": false
  },
  "pageable": {
    "sort": {
      "sorted": true,
      "unsorted": false,
      "empty": false
    },
    "offset": 0,
    "pageSize": 10,
    "pageNumber": 0,
    "paged": true,
    "unpaged": false
  }
}
