{
  "content": [
    {
      "id": 1,
      "name": "Agustín",
      "surnames": "Gallego Gómez",
      "email": "agus@example.com",
      "active": true
    },
    {
      "id": 2,
      "name": "Lucía",
      "surnames": "Pérez Díaz",
      "email": "lucia@example.com",
      "active": false
    },
    {
      "id": 3,
      "name": "Carlos",
      "surnames": "López Fernández",
      "email": "carlos@example.com",
      "active": true
    }
  ],
  "totalElements": 50,
  "totalPages": 5,
  "size": 10,
  "number": 0,
  "first": true,
  "last": false,
  "numberOfElements": 3,
  "empty": false,
  "sort": {
    "sorted": true,
    "unsorted": false,
    "empty": false
  },
  "pageable": {
    "sort": {
      "sorted": true,
      "unsorted": false,
      "empty": false
    },
    "offset": 0,
    "pageSize": 10,
    "pageNumber": 0,
    "paged": true,
    "unpaged": false
  }
}
